Label	Parent_Type	Parent_Name	Branch	Position
LongCovidQuestionnaire_DataDictionary_2021-12-14	CcSequence			1
participant	CcSequence	LongCovidQuestionnaire_DataDictionary_2021-12-14		1
health	CcSequence	LongCovidQuestionnaire_DataDictionary_2021-12-14		2
symptoms	CcSequence	LongCovidQuestionnaire_DataDictionary_2021-12-14		3
SHIELDING	CcSequence	LongCovidQuestionnaire_DataDictionary_2021-12-14		4
SYMPTOMS	CcSequence	LongCovidQuestionnaire_DataDictionary_2021-12-14		5
testing	CcSequence	LongCovidQuestionnaire_DataDictionary_2021-12-14		6
Swab Tests	CcSequence	LongCovidQuestionnaire_DataDictionary_2021-12-14		7
Test Results	CcSequence	LongCovidQuestionnaire_DataDictionary_2021-12-14		8
Test 1	CcSequence	LongCovidQuestionnaire_DataDictionary_2021-12-14		9
Test 2	CcSequence	LongCovidQuestionnaire_DataDictionary_2021-12-14		10
Test 3	CcSequence	LongCovidQuestionnaire_DataDictionary_2021-12-14		11
Test 4	CcSequence	LongCovidQuestionnaire_DataDictionary_2021-12-14		12
Test 5	CcSequence	LongCovidQuestionnaire_DataDictionary_2021-12-14		13
Test 6	CcSequence	LongCovidQuestionnaire_DataDictionary_2021-12-14		14
Test 7	CcSequence	LongCovidQuestionnaire_DataDictionary_2021-12-14		15
Test 8	CcSequence	LongCovidQuestionnaire_DataDictionary_2021-12-14		16
Test 9	CcSequence	LongCovidQuestionnaire_DataDictionary_2021-12-14		17
Test 10	CcSequence	LongCovidQuestionnaire_DataDictionary_2021-12-14		18
Further tests	CcSequence	LongCovidQuestionnaire_DataDictionary_2021-12-14		19
Routine Testing	CcSequence	LongCovidQuestionnaire_DataDictionary_2021-12-14		20
Test Results duplicate 1	CcSequence	LongCovidQuestionnaire_DataDictionary_2021-12-14		21
Test 1 duplicate 1	CcSequence	LongCovidQuestionnaire_DataDictionary_2021-12-14		22
Test 2 duplicate 1	CcSequence	LongCovidQuestionnaire_DataDictionary_2021-12-14		23
Test 3 duplicate 1	CcSequence	LongCovidQuestionnaire_DataDictionary_2021-12-14		24
Test 4 duplicate 1	CcSequence	LongCovidQuestionnaire_DataDictionary_2021-12-14		25
Test 5 duplicate 1	CcSequence	LongCovidQuestionnaire_DataDictionary_2021-12-14		26
Further tests duplicate 1	CcSequence	LongCovidQuestionnaire_DataDictionary_2021-12-14		27
Start date	CcSequence	LongCovidQuestionnaire_DataDictionary_2021-12-14		28
Blood or Finger-Prick Tests	CcSequence	LongCovidQuestionnaire_DataDictionary_2021-12-14		29
Test Results duplicate 2	CcSequence	LongCovidQuestionnaire_DataDictionary_2021-12-14		30
Test 1 duplicate 2	CcSequence	LongCovidQuestionnaire_DataDictionary_2021-12-14		31
Test 2 duplicate 2	CcSequence	LongCovidQuestionnaire_DataDictionary_2021-12-14		32
Test 3 duplicate 2	CcSequence	LongCovidQuestionnaire_DataDictionary_2021-12-14		33
Test 4 duplicate 2	CcSequence	LongCovidQuestionnaire_DataDictionary_2021-12-14		34
Test 5 duplicate 2	CcSequence	LongCovidQuestionnaire_DataDictionary_2021-12-14		35
Test 6 duplicate 1	CcSequence	LongCovidQuestionnaire_DataDictionary_2021-12-14		36
Test 7 duplicate 1	CcSequence	LongCovidQuestionnaire_DataDictionary_2021-12-14		37
Test 8 duplicate 1	CcSequence	LongCovidQuestionnaire_DataDictionary_2021-12-14		38
Test 9 duplicate 1	CcSequence	LongCovidQuestionnaire_DataDictionary_2021-12-14		39
Test 10 duplicate 1	CcSequence	LongCovidQuestionnaire_DataDictionary_2021-12-14		40
Further tests duplicate 2	CcSequence	LongCovidQuestionnaire_DataDictionary_2021-12-14		41
vaccinations	CcSequence	LongCovidQuestionnaire_DataDictionary_2021-12-14		42
feelings	CcSequence	LongCovidQuestionnaire_DataDictionary_2021-12-14		43
studies	CcSequence	LongCovidQuestionnaire_DataDictionary_2021-12-14		44
Study in London	CcSequence	LongCovidQuestionnaire_DataDictionary_2021-12-14		45
Study for participants who have had COVID-19 symptoms	CcSequence	LongCovidQuestionnaire_DataDictionary_2021-12-14		46
compqr	CcSequence	LongCovidQuestionnaire_DataDictionary_2021-12-14		47
